project0/problem1/p1.vcd
$date
     Sep 09, 2021       23:26:08
$end

$version
 SystemC 2.3.3-Accellera --- Aug 28 2021 19:31:24
$end

$timescale
     1 ps
$end

$scope module SystemC $end
$var wire    1  aaaaa  data_in       $end
$var wire    1  aaaab  data_out       $end
$var wire    1  aaaac  clk       $end
$var wire    1  aaaad  rst       $end
$var wire    1  aaaae  clr       $end
$upscope $end
$enddefinitions  $end

$comment
All initial values are dumped below at time 0 sec = 0 timescale units.
$end

$dumpvars
0aaaaa
0aaaab
1aaaac
0aaaad
0aaaae
$end

#10000
0aaaac

#20000
1aaaac
1aaaad

#30000
0aaaac

#40000
1aaaac

#50000
0aaaac

#60000
1aaaac

#70000
0aaaac

#80000
1aaaaa
1aaaac

#90000
0aaaac

#100000
0aaaaa
1aaaac

#110000
0aaaac

#120000
1aaaaa
1aaaac

#130000
0aaaac

#140000
1aaaab
1aaaac

#150000
0aaaac

#160000
0aaaaa
0aaaab
1aaaac

#170000
0aaaac

#180000
1aaaaa
1aaaac

#190000
0aaaac

#200000
0aaaaa
1aaaac

#210000
0aaaac

#220000
1aaaac

#230000
0aaaac

#240000
1aaaac

#250000
0aaaac

#260000
1aaaaa
1aaaac

#270000
0aaaac

#280000
1aaaac

#290000
0aaaac

#300000
1aaaac

#310000
0aaaac

#320000
0aaaaa
1aaaac

#330000
0aaaac

#340000
1aaaaa
1aaaac

#350000
0aaaac

#360000
1aaaab
1aaaac

#370000
0aaaac

#380000
0aaaaa
0aaaab
1aaaac

#390000
0aaaac

#400000
1aaaac

#410000
0aaaac

#420000
1aaaac

#430000
0aaaac

#440000
1aaaaa
1aaaac

#450000
0aaaac

#460000
1aaaac

#470000
0aaaac

#480000
0aaaaa
1aaaac

#490000
0aaaac

#500000
1aaaac

#510000
0aaaac

#520000
1aaaaa
1aaaac

#530000
0aaaac

#540000
0aaaaa
1aaaac

#550000
0aaaac

#560000
1aaaac

#570000
0aaaac

#580000
1aaaac

#590000
0aaaac

#600000
1aaaaa
1aaaac

#610000
0aaaac

#620000
0aaaaa
1aaaac

#630000
0aaaac

#640000
1aaaac

#650000
0aaaac

#660000
1aaaaa
1aaaac

#670000
0aaaac

#680000
0aaaaa
1aaaac

#690000
0aaaac

#700000
1aaaaa
1aaaac

#710000
0aaaac

#720000
1aaaab
1aaaac

#730000
0aaaac

#740000
0aaaab
1aaaac

#750000
0aaaac

#760000
1aaaac

#770000
0aaaac

#780000
0aaaaa
1aaaac

#790000
0aaaac

#800000
1aaaac

#810000
0aaaac

#820000
1aaaaa
1aaaac

#830000
0aaaac

#840000
0aaaaa
1aaaac

#850000
0aaaac

#860000
1aaaac

#870000
0aaaac

#880000
1aaaaa
1aaaac

#890000
0aaaac

#900000
0aaaaa
1aaaac

#910000
0aaaac

#920000
1aaaaa
1aaaac

#930000
0aaaac

#940000
1aaaab
1aaaac

#950000
0aaaac

#960000
0aaaab
1aaaac

#970000
0aaaac

#980000
1aaaac

#990000
0aaaac

#1000000
1aaaac

#1010000
0aaaac

#1020000
1aaaac

#1030000
0aaaac

#1040000
1aaaac

#1050000
0aaaac

#1060000
0aaaaa
1aaaac

#1070000
0aaaac

#1080000
1aaaaa
1aaaac

#1090000
0aaaac

#1100000
1aaaab
1aaaac

#1110000
0aaaac

#1120000
0aaaaa
0aaaab
1aaaac

#1130000
0aaaac

#1140000
1aaaac

#1150000
0aaaac

#1160000
1aaaac

#1170000
0aaaac

#1180000
1aaaaa
1aaaac

